da-da-da-net-net-da	da da da net net da
da-da-da-net-net-net	da da da net net net
da-da-da	da da da
da-da-net-da-net-da	da da net da net da
da-da-net-da-net	da da net da net
da-da-net-da	da da net da
da-da-net-net-da-da	da da net net da da
da-da-net-net-da	da da net net da
da-da-net-net-net-da	da da net net net da
da-da-net-net	da da net net
da-da	da da
da-net-da-da-da-da	da net da da da da
da-net-da-da-da	da net da da da
da-net-da-da-net	da net da da net
da-net-da-da	da net da da
da-net-da-net-da-da	da net da net da da
da-net-da-net-net	da net da net net
da-net-da-net	da net da net
da-net-da	da net da
da-net-net-da-da-da	da net net da da da
da-net-net-da-da	da net net da da
da-net-net-net-net-net	da net net net net net
da-net-net-net	da net net net
da-net-net	da net net
da-net	da net
da	da
net-da-da-da-da-net	net da da da da net
net-da-da-da-net-net	net da da da net net
net-da-da-da	net da da da
net-da-da-net	net da da net
net-da-da	net da da
net-da-net-da-da	net da net da da
net-da-net-da-net	net da net da net
net-da-net-da	net da net da
net-da-net-net-da-da	net da net net da da
net-da-net-net	net da net net
net-da-net	net da net
net-da	net da
net-net-da-da-da	net net da da da
net-net-da-da	net net da da
net-net-da-net-da-da	net net da net da da
net-net-da-net-da	net net da net da
net-net-da-net	net net da net
net-net-da	net net da
net-net-net-da-net-da	net net net da net da
net-net-net-da	net net net da
net-net-net-net-da-net	net net net net da net
net-net-net-net-net	net net net net net
net-net-net-net	net net net net
net-net-net	net net net
net-net	net net
net	net
